[
  {
    "model": "records.doctor",
    "pk": 1,
    "fields": {
      "fio": "Василий Романович Миронов",
      "profession": "Окулист"
    }
  },
  {
    "model": "records.doctor",
    "pk": 2,
    "fields": {
      "fio": "Аркадий Александрович Орехов",
      "profession": "Хирург"
    }
  },
  {
    "model": "records.doctor",
    "pk": 3,
    "fields": {
      "fio": "Валерий Андреевич Туров",
      "profession": "Онколог"
    }
  },
  {
    "model": "records.doctor",
    "pk": 4,
    "fields": {
      "fio": "Игорь Ильич Бирюков",
      "profession": "Эндокринолог"
    }
  },
  {
    "model": "records.doctor",
    "pk": 5,
    "fields": {
      "fio": "Павел Фёдорович Блохин",
      "profession": "Аллерголог"
    }
  },
  {
    "model": "records.doctor",
    "pk": 6,
    "fields": {
      "fio": "Руслан Валентинович Блинов",
      "profession": "Дерматолог"
    }
  },
  {
    "model": "records.doctor",
    "pk": 7,
    "fields": {
      "fio": "Егор Павлович Миронов",
      "profession": "Диетолог"
    }
  },
  {
    "model": "records.doctor",
    "pk": 8,
    "fields": {
      "fio": "Валентин Сергеевич Лукин",
      "profession": "Кардиохирург"
    }
  }
]